%YAML 1.1
%TAG !u! tag:unity3d.com,2011:
--- !u!1001 &3992193253896055942
PrefabInstance:
  m_ObjectHideFlags: 0
  serializedVersion: 2
  m_Modification:
    m_TransformParent: {fileID: 0}
    m_Modifications:
    - target: {fileID: 315015492015669034, guid: 5e6cf2350a68b2a4cad7e412c6345441,
        type: 3}
      propertyPath: m_Name
      value: Wall Variant 2
      objectReference: {fileID: 0}
    - target: {fileID: 315015492015669035, guid: 5e6cf2350a68b2a4cad7e412c6345441,
        type: 3}
      propertyPath: m_LocalPosition.x
      value: 0
      objectReference: {fileID: 0}
    - target: {fileID: 315015492015669035, guid: 5e6cf2350a68b2a4cad7e412c6345441,
        type: 3}
      propertyPath: m_LocalPosition.y
      value: 0
      objectReference: {fileID: 0}
    - target: {fileID: 315015492015669035, guid: 5e6cf2350a68b2a4cad7e412c6345441,
        type: 3}
      propertyPath: m_LocalPosition.z
      value: 0
      objectReference: {fileID: 0}
    - target: {fileID: 315015492015669035, guid: 5e6cf2350a68b2a4cad7e412c6345441,
        type: 3}
      propertyPath: m_LocalRotation.x
      value: -0
      objectReference: {fileID: 0}
    - target: {fileID: 315015492015669035, guid: 5e6cf2350a68b2a4cad7e412c6345441,
        type: 3}
      propertyPath: m_LocalRotation.y
      value: -0
      objectReference: {fileID: 0}
    - target: {fileID: 315015492015669035, guid: 5e6cf2350a68b2a4cad7e412c6345441,
        type: 3}
      propertyPath: m_LocalRotation.z
      value: -0
      objectReference: {fileID: 0}
    - target: {fileID: 315015492015669035, guid: 5e6cf2350a68b2a4cad7e412c6345441,
        type: 3}
      propertyPath: m_LocalRotation.w
      value: 1
      objectReference: {fileID: 0}
    - target: {fileID: 315015492015669035, guid: 5e6cf2350a68b2a4cad7e412c6345441,
        type: 3}
      propertyPath: m_RootOrder
      value: 0
      objectReference: {fileID: 0}
    - target: {fileID: 315015492015669035, guid: 5e6cf2350a68b2a4cad7e412c6345441,
        type: 3}
      propertyPath: m_LocalEulerAnglesHint.x
      value: 0
      objectReference: {fileID: 0}
    - target: {fileID: 315015492015669035, guid: 5e6cf2350a68b2a4cad7e412c6345441,
        type: 3}
      propertyPath: m_LocalEulerAnglesHint.y
      value: 0
      objectReference: {fileID: 0}
    - target: {fileID: 315015492015669035, guid: 5e6cf2350a68b2a4cad7e412c6345441,
        type: 3}
      propertyPath: m_LocalEulerAnglesHint.z
      value: 0
      objectReference: {fileID: 0}
    - target: {fileID: 315015492015669029, guid: 5e6cf2350a68b2a4cad7e412c6345441,
        type: 3}
      propertyPath: m_Sprite
      value: 
      objectReference: {fileID: 21300000, guid: 1e35255774704e745877f971acd83304,
        type: 3}
    m_RemovedComponents: []
  m_SourcePrefab: {fileID: 100100000, guid: 5e6cf2350a68b2a4cad7e412c6345441, type: 3}
